…
```r
augustSumm <- august %>%
  #drop individual
  select(-Individual) %>%
  group_by(DPI, site, class) %>%
  summarise_each(funs(mean(.,na.rm=T),sd(.,na.rm=T),se=(sd(., na.rm=T)/sqrt(n())))) %>%
  ungroup()

#print(xtable(augustSumm), type="html")
augustSumm
```

```
## # A tibble: 27 × 15
##       DPI   site    class  Body_mean Head_mean Saliva_mean Wing_mean
##    <fctr> <fctr>   <fctr>      <dbl>     <dbl>       <dbl>     <dbl>
## 1       9     R1    Rural 0.25000000      0.05         0.0  2.450526
## 2       9     R2    Rural 0.15000000      0.10         0.0  2.347500
## 3       9     R3    Rural 0.00000000      0.00         0.0  2.479500
## 4       9     S1 Suburban 0.15000000      0.10         0.0  2.495000
## 5       9     S2 Suburban 0.05263158      0.00         0.0  2.264211
## 6       9     S3 Suburban 0.30000000      0.00         0.0  2.508000
## 7       9     U1    Urban 0.25000000      0.10         0.0  2.592632
## 8       9     U2    Urban 0.10000000      0.05         0.0  2.545500
## 9       9     U3    Urban 0.00000000      0.00         0.0  2.493000
## 10     14     R1    Rural 0.10000000      0.10         0.1  2.474629
## # ... with 17 more rows, and 8 more variables: Body_sd <dbl>,
## #   Head_sd <dbl>, Saliva_sd <dbl>, Wing_sd <dbl>, Body_se <dbl>,
## #   Head_se <dbl>, Saliva_se <dbl>, Wing_se <dbl>
```
…
