Emergence Exploration
…
byTrayAllMF <- allEmerge %>%
  group_by(Class, Tray_Code) %>%
  summarise(cumulative=sum(Num_Emerge)) %>%
  ungroup()

The total emerged per each tray is:

b <- byTrayAllMF[order(byTrayAllMF$cumulative, decreasing=T),]
b[1:36,]

## # A tibble: 36 x 3
##       Class Tray_Code cumulative
##      <fctr>    <fctr>      <int>
## 1     urban      U1T3         97
## 2     rural      R1T3         92
## 3     rural      R1T4         90
## 4     rural      R2T3         84
## 5  suburban      S2T4         84
## 6     rural      R3T2         83
## 7  suburban      S3T2         82
## 8     urban      U1T1         82
## 9     urban      U1T4         82
## 10    urban      U2T1         82
## # ... with 26 more rows

The Slow Down

It is also helpful to see when the last mosquito emerged from each tray, to know when the experiment is over. The following is a list of the trays which have not had a mosquito emerge for five days, and the last day of emergence for them:

trayLastDay <- allEmerge %>%
  group_by(Tray_Code) %>%
  filter(Num_Emerge>0) %>%
  summarise(lastDay=max(Day)) %>%
  ungroup()

a <- trayLastDay[(as.numeric((format(Sys.Date(), "%d")))-trayLastDay$lastDay)>=5,]
(a[1:nrow(a),])

## # A tibble: 26 x 2
##    Tray_Code lastDay
##       <fctr>   <int>
## 1       R1T1      17
## 2       R1T2      17
## 3       R2T2      18
## 4       R2T3      15
## 5       R2T4      18
## 6       R3T1      18
## 7       R3T3      15
## 8       R3T4      16
## 9       S1T1      18
## 10      S1T2      18
## # ... with 16 more rows
…
